TP_SUJET1_DE/simulation/qsim/TP_SUJET1_DE.msim.vcd
$comment
	File created using the following command:
		vcd file TP_SUJET1_DE.msim.vcd -direction
$end
$date
	Fri Nov 28 23:05:59 2025
$end
$version
	ModelSim Version 10.5b
$end
$timescale
	1ps
$end

$scope module SimulateurDe_vlg_vec_tst $end
$var reg 1 ! C_Btn $end
$var reg 1 " Clk $end
$var reg 1 # L_Btn $end
$var reg 1 $ R_Btn $end
$var wire 1 % Aff_Diz [0] $end
$var wire 1 & Aff_Diz [1] $end
$var wire 1 ' Aff_Diz [2] $end
$var wire 1 ( Aff_Diz [3] $end
$var wire 1 ) Aff_Diz [4] $end
$var wire 1 * Aff_Diz [5] $end
$var wire 1 + Aff_Diz [6] $end
$var wire 1 , Aff_Unit [0] $end
$var wire 1 - Aff_Unit [1] $end
$var wire 1 . Aff_Unit [2] $end
$var wire 1 / Aff_Unit [3] $end
$var wire 1 0 Aff_Unit [4] $end
$var wire 1 1 Aff_Unit [5] $end
$var wire 1 2 Aff_Unit [6] $end
$var wire 1 3 d_cent [0] $end
$var wire 1 4 d_cent [1] $end
$var wire 1 5 d_cent [2] $end
$var wire 1 6 d_cent [3] $end
$var wire 1 7 d_cent [4] $end
$var wire 1 8 d_cent [5] $end
$var wire 1 9 d_cent [6] $end
$var wire 1 : d_d [0] $end
$var wire 1 ; d_d [1] $end
$var wire 1 < d_d [2] $end
$var wire 1 = d_d [3] $end
$var wire 1 > d_d [4] $end
$var wire 1 ? d_d [5] $end
$var wire 1 @ d_d [6] $end
$var wire 1 A d_diz [0] $end
$var wire 1 B d_diz [1] $end
$var wire 1 C d_diz [2] $end
$var wire 1 D d_diz [3] $end
$var wire 1 E d_diz [4] $end
$var wire 1 F d_diz [5] $end
$var wire 1 G d_diz [6] $end
$var wire 1 H d_unit [0] $end
$var wire 1 I d_unit [1] $end
$var wire 1 J d_unit [2] $end
$var wire 1 K d_unit [3] $end
$var wire 1 L d_unit [4] $end
$var wire 1 M d_unit [5] $end
$var wire 1 N d_unit [6] $end

$scope module i1 $end
$var wire 1 O gnd $end
$var wire 1 P vcc $end
$var wire 1 Q unknown $end
$var tri1 1 R devclrn $end
$var tri1 1 S devpor $end
$var tri1 1 T devoe $end
$var wire 1 U C_Btn~input_o $end
$var wire 1 V d_unit[6]~output_o $end
$var wire 1 W d_unit[5]~output_o $end
$var wire 1 X d_unit[4]~output_o $end
$var wire 1 Y d_unit[3]~output_o $end
$var wire 1 Z d_unit[2]~output_o $end
$var wire 1 [ d_unit[1]~output_o $end
$var wire 1 \ d_unit[0]~output_o $end
$var wire 1 ] d_diz[6]~output_o $end
$var wire 1 ^ d_diz[5]~output_o $end
$var wire 1 _ d_diz[4]~output_o $end
$var wire 1 ` d_diz[3]~output_o $end
$var wire 1 a d_diz[2]~output_o $end
$var wire 1 b d_diz[1]~output_o $end
$var wire 1 c d_diz[0]~output_o $end
$var wire 1 d d_cent[6]~output_o $end
$var wire 1 e d_cent[5]~output_o $end
$var wire 1 f d_cent[4]~output_o $end
$var wire 1 g d_cent[3]~output_o $end
$var wire 1 h d_cent[2]~output_o $end
$var wire 1 i d_cent[1]~output_o $end
$var wire 1 j d_cent[0]~output_o $end
$var wire 1 k d_d[6]~output_o $end
$var wire 1 l d_d[5]~output_o $end
$var wire 1 m d_d[4]~output_o $end
$var wire 1 n d_d[3]~output_o $end
$var wire 1 o d_d[2]~output_o $end
$var wire 1 p d_d[1]~output_o $end
$var wire 1 q d_d[0]~output_o $end
$var wire 1 r Aff_Unit[6]~output_o $end
$var wire 1 s Aff_Unit[5]~output_o $end
$var wire 1 t Aff_Unit[4]~output_o $end
$var wire 1 u Aff_Unit[3]~output_o $end
$var wire 1 v Aff_Unit[2]~output_o $end
$var wire 1 w Aff_Unit[1]~output_o $end
$var wire 1 x Aff_Unit[0]~output_o $end
$var wire 1 y Aff_Diz[6]~output_o $end
$var wire 1 z Aff_Diz[5]~output_o $end
$var wire 1 { Aff_Diz[4]~output_o $end
$var wire 1 | Aff_Diz[3]~output_o $end
$var wire 1 } Aff_Diz[2]~output_o $end
$var wire 1 ~ Aff_Diz[1]~output_o $end
$var wire 1 !! Aff_Diz[0]~output_o $end
$var wire 1 "! Clk~input_o $end
$var wire 1 #! Clk~inputclkctrl_outclk $end
$var wire 1 $! selecteur|current_dice[0]~2_combout $end
$var wire 1 %! L_Btn~input_o $end
$var wire 1 &! db_dec|sync_0~feeder_combout $end
$var wire 1 '! db_dec|sync_0~q $end
$var wire 1 (! db_dec|sync_1~feeder_combout $end
$var wire 1 )! db_dec|sync_1~q $end
$var wire 1 *! db_dec|counter[0]~19_combout $end
$var wire 1 +! db_dec|counter[1]~49_combout $end
$var wire 1 ,! db_dec|counter[0]~20 $end
$var wire 1 -! db_dec|counter[1]~21_combout $end
$var wire 1 .! db_dec|counter[1]~22 $end
$var wire 1 /! db_dec|counter[2]~23_combout $end
$var wire 1 0! db_dec|counter[2]~24 $end
$var wire 1 1! db_dec|counter[3]~25_combout $end
$var wire 1 2! db_dec|counter[3]~26 $end
$var wire 1 3! db_dec|counter[4]~27_combout $end
$var wire 1 4! db_dec|counter[4]~28 $end
$var wire 1 5! db_dec|counter[5]~29_combout $end
$var wire 1 6! db_dec|counter[5]~30 $end
$var wire 1 7! db_dec|counter[6]~31_combout $end
$var wire 1 8! db_dec|counter[6]~32 $end
$var wire 1 9! db_dec|counter[7]~33_combout $end
$var wire 1 :! db_dec|counter[7]~34 $end
$var wire 1 ;! db_dec|counter[8]~35_combout $end
$var wire 1 <! db_dec|counter[8]~36 $end
$var wire 1 =! db_dec|counter[9]~37_combout $end
$var wire 1 >! db_dec|counter[9]~38 $end
$var wire 1 ?! db_dec|counter[10]~39_combout $end
$var wire 1 @! db_dec|counter[10]~40 $end
$var wire 1 A! db_dec|counter[11]~41_combout $end
$var wire 1 B! db_dec|counter[11]~42 $end
$var wire 1 C! db_dec|counter[12]~43_combout $end
$var wire 1 D! db_dec|counter[12]~44 $end
$var wire 1 E! db_dec|counter[13]~45_combout $end
$var wire 1 F! db_dec|counter[13]~46 $end
$var wire 1 G! db_dec|counter[14]~47_combout $end
$var wire 1 H! db_dec|counter[14]~48 $end
$var wire 1 I! db_dec|counter[15]~50_combout $end
$var wire 1 J! db_dec|counter[15]~51 $end
$var wire 1 K! db_dec|counter[16]~52_combout $end
$var wire 1 L! db_dec|counter[16]~53 $end
$var wire 1 M! db_dec|counter[17]~54_combout $end
$var wire 1 N! db_dec|counter[17]~55 $end
$var wire 1 O! db_dec|counter[18]~56_combout $end
$var wire 1 P! db_dec|LessThan0~2_combout $end
$var wire 1 Q! db_dec|LessThan0~0_combout $end
$var wire 1 R! db_dec|LessThan0~1_combout $end
$var wire 1 S! db_dec|LessThan0~3_combout $end
$var wire 1 T! db_dec|LessThan0~4_combout $end
$var wire 1 U! db_dec|stable_state~0_combout $end
$var wire 1 V! db_dec|stable_state~q $end
$var wire 1 W! db_dec|pulse_out~0_combout $end
$var wire 1 X! db_dec|pulse_out~q $end
$var wire 1 Y! db_inc|counter[0]~19_combout $end
$var wire 1 Z! R_Btn~input_o $end
$var wire 1 [! db_inc|sync_0~feeder_combout $end
$var wire 1 \! db_inc|sync_0~q $end
$var wire 1 ]! db_inc|sync_1~feeder_combout $end
$var wire 1 ^! db_inc|sync_1~q $end
$var wire 1 _! db_inc|stable_state~0_combout $end
$var wire 1 `! db_inc|stable_state~q $end
$var wire 1 a! db_inc|counter[1]~49_combout $end
$var wire 1 b! db_inc|counter[0]~20 $end
$var wire 1 c! db_inc|counter[1]~21_combout $end
$var wire 1 d! db_inc|counter[1]~22 $end
$var wire 1 e! db_inc|counter[2]~23_combout $end
$var wire 1 f! db_inc|counter[2]~24 $end
$var wire 1 g! db_inc|counter[3]~25_combout $end
$var wire 1 h! db_inc|counter[3]~26 $end
$var wire 1 i! db_inc|counter[4]~27_combout $end
$var wire 1 j! db_inc|counter[4]~28 $end
$var wire 1 k! db_inc|counter[5]~29_combout $end
$var wire 1 l! db_inc|counter[5]~30 $end
$var wire 1 m! db_inc|counter[6]~31_combout $end
$var wire 1 n! db_inc|counter[6]~32 $end
$var wire 1 o! db_inc|counter[7]~33_combout $end
$var wire 1 p! db_inc|counter[7]~34 $end
$var wire 1 q! db_inc|counter[8]~35_combout $end
$var wire 1 r! db_inc|counter[8]~36 $end
$var wire 1 s! db_inc|counter[9]~37_combout $end
$var wire 1 t! db_inc|counter[9]~38 $end
$var wire 1 u! db_inc|counter[10]~39_combout $end
$var wire 1 v! db_inc|counter[10]~40 $end
$var wire 1 w! db_inc|counter[11]~41_combout $end
$var wire 1 x! db_inc|counter[11]~42 $end
$var wire 1 y! db_inc|counter[12]~43_combout $end
$var wire 1 z! db_inc|counter[12]~44 $end
$var wire 1 {! db_inc|counter[13]~45_combout $end
$var wire 1 |! db_inc|counter[13]~46 $end
$var wire 1 }! db_inc|counter[14]~47_combout $end
$var wire 1 ~! db_inc|counter[14]~48 $end
$var wire 1 !" db_inc|counter[15]~50_combout $end
$var wire 1 "" db_inc|counter[15]~51 $end
$var wire 1 #" db_inc|counter[16]~52_combout $end
$var wire 1 $" db_inc|counter[16]~53 $end
$var wire 1 %" db_inc|counter[17]~54_combout $end
$var wire 1 &" db_inc|LessThan0~2_combout $end
$var wire 1 '" db_inc|LessThan0~0_combout $end
$var wire 1 (" db_inc|LessThan0~1_combout $end
$var wire 1 )" db_inc|LessThan0~3_combout $end
$var wire 1 *" db_inc|counter[17]~55 $end
$var wire 1 +" db_inc|counter[18]~56_combout $end
$var wire 1 ," db_inc|LessThan0~4_combout $end
$var wire 1 -" db_inc|pulse_out~0_combout $end
$var wire 1 ." db_inc|pulse_out~q $end
$var wire 1 /" selecteur|current_dice~0_combout $end
$var wire 1 0" selecteur|Add0~1_combout $end
$var wire 1 1" selecteur|Add0~0_combout $end
$var wire 1 2" affichage_d_unit|WideOr6~0_combout $end
$var wire 1 3" affichage_d_unit|Decoder0~0_combout $end
$var wire 1 4" affichage_d_unit|Decoder0~1_combout $end
$var wire 1 5" affichage_d_unit|WideOr1~0_combout $end
$var wire 1 6" valeur_de|var_diz[2]~0_combout $end
$var wire 1 7" affichage_d_diz|WideOr5~0_combout $end
$var wire 1 8" valeur_de|var_diz[3]~1_combout $end
$var wire 1 9" affichage_d_diz|WideOr3~0_combout $end
$var wire 1 :" affichage_d_diz|WideOr2~0_combout $end
$var wire 1 ;" affichage_d_diz|WideOr1~0_combout $end
$var wire 1 <" affichage_d_diz|WideOr0~0_combout $end
$var wire 1 =" affichage_d_cent|WideOr6~combout $end
$var wire 1 >" valeur_de|Equal0~0_combout $end
$var wire 1 ?" db_inc|counter [18] $end
$var wire 1 @" db_inc|counter [17] $end
$var wire 1 A" db_inc|counter [16] $end
$var wire 1 B" db_inc|counter [15] $end
$var wire 1 C" db_inc|counter [14] $end
$var wire 1 D" db_inc|counter [13] $end
$var wire 1 E" db_inc|counter [12] $end
$var wire 1 F" db_inc|counter [11] $end
$var wire 1 G" db_inc|counter [10] $end
$var wire 1 H" db_inc|counter [9] $end
$var wire 1 I" db_inc|counter [8] $end
$var wire 1 J" db_inc|counter [7] $end
$var wire 1 K" db_inc|counter [6] $end
$var wire 1 L" db_inc|counter [5] $end
$var wire 1 M" db_inc|counter [4] $end
$var wire 1 N" db_inc|counter [3] $end
$var wire 1 O" db_inc|counter [2] $end
$var wire 1 P" db_inc|counter [1] $end
$var wire 1 Q" db_inc|counter [0] $end
$var wire 1 R" selecteur|current_dice [2] $end
$var wire 1 S" selecteur|current_dice [1] $end
$var wire 1 T" selecteur|current_dice [0] $end
$var wire 1 U" db_dec|counter [18] $end
$var wire 1 V" db_dec|counter [17] $end
$var wire 1 W" db_dec|counter [16] $end
$var wire 1 X" db_dec|counter [15] $end
$var wire 1 Y" db_dec|counter [14] $end
$var wire 1 Z" db_dec|counter [13] $end
$var wire 1 [" db_dec|counter [12] $end
$var wire 1 \" db_dec|counter [11] $end
$var wire 1 ]" db_dec|counter [10] $end
$var wire 1 ^" db_dec|counter [9] $end
$var wire 1 _" db_dec|counter [8] $end
$var wire 1 `" db_dec|counter [7] $end
$var wire 1 a" db_dec|counter [6] $end
$var wire 1 b" db_dec|counter [5] $end
$var wire 1 c" db_dec|counter [4] $end
$var wire 1 d" db_dec|counter [3] $end
$var wire 1 e" db_dec|counter [2] $end
$var wire 1 f" db_dec|counter [1] $end
$var wire 1 g" db_dec|counter [0] $end
$upscope $end
$upscope $end
$enddefinitions $end
#0
$dumpvars
x!
0"
0#
0$
0+
0*
0)
0(
0'
0&
0%
02
01
00
0/
0.
0-
0,
19
18
17
16
15
14
13
1@
1?
1>
1=
1<
1;
1:
0G
0F
0E
0D
1C
1B
0A
0N
0M
1L
1K
0J
0I
1H
0O
1P
xQ
1R
1S
1T
xU
0V
0W
1X
1Y
0Z
0[
1\
0]
0^
0_
0`
1a
1b
0c
1d
1e
1f
1g
1h
1i
1j
1k
1l
1m
1n
1o
1p
1q
0r
0s
0t
0u
0v
0w
0x
0y
0z
0{
0|
0}
0~
0!!
0"!
0#!
1$!
0%!
0&!
0'!
0(!
0)!
1*!
1+!
0,!
0-!
1.!
0/!
00!
01!
12!
03!
04!
05!
16!
07!
08!
09!
1:!
0;!
0<!
0=!
1>!
0?!
0@!
0A!
1B!
0C!
0D!
0E!
1F!
0G!
0H!
0I!
1J!
0K!
0L!
0M!
1N!
0O!
1P!
1Q!
1R!
1S!
1T!
0U!
0V!
0W!
0X!
1Y!
0Z!
0[!
0\!
0]!
0^!
0_!
0`!
1a!
0b!
0c!
1d!
0e!
0f!
0g!
1h!
0i!
0j!
0k!
1l!
0m!
0n!
0o!
1p!
0q!
0r!
0s!
1t!
0u!
0v!
0w!
1x!
0y!
0z!
0{!
1|!
0}!
0~!
0!"
1""
0#"
0$"
0%"
1&"
1'"
1("
1)"
1*"
0+"
1,"
0-"
0."
0/"
10"
11"
02"
03"
14"
15"
16"
07"
08"
09"
1:"
0;"
1<"
1="
0>"
0Q"
0P"
0O"
0N"
0M"
0L"
0K"
0J"
0I"
0H"
0G"
0F"
0E"
0D"
0C"
0B"
0A"
0@"
0?"
0T"
0S"
0R"
0g"
0f"
0e"
0d"
0c"
0b"
0a"
0`"
0_"
0^"
0]"
0\"
0["
0Z"
0Y"
0X"
0W"
0V"
0U"
$end
#1000
1"
1"!
1#!
#2000
0"
0"!
0#!
#3000
1"
1"!
1#!
#4000
0"
0"!
0#!
#5000
1"
1"!
1#!
#6000
0"
0"!
0#!
#7000
1"
1"!
1#!
#8000
0"
0"!
0#!
#9000
1"
1"!
1#!
#10000
1$
0"
1Z!
0"!
0#!
1[!
#11000
1"
1"!
1#!
1\!
1]!
#12000
0"
0"!
0#!
#13000
1"
1"!
1#!
1^!
0a!
#14000
0"
0"!
0#!
#15000
1"
1"!
1#!
1Q"
1b!
0Y!
1c!
#16000
0"
0"!
0#!
#17000
1"
1"!
1#!
1P"
0Q"
0d!
0b!
0c!
1Y!
1d!
1e!
1c!
0e!
#18000
0"
0"!
0#!
#19000
1"
1"!
1#!
1Q"
1b!
0Y!
0d!
0c!
1e!
#20000
0$
0"
0Z!
0"!
0#!
0[!
#21000
1"
1"!
1#!
1O"
0P"
0Q"
0\!
1f!
1d!
0b!
0e!
1c!
1Y!
0]!
0f!
1g!
1e!
0c!
0g!
#22000
0"
0"!
0#!
#23000
1"
1"!
1#!
1Q"
0^!
1b!
1a!
0Y!
1c!
#24000
0"
0"!
0#!
#25000
1"
1"!
1#!
0O"
0Q"
0b!
0e!
1Y!
0c!
#26000
0"
0"!
0#!
#27000
1"
1"!
1#!
#28000
0"
0"!
0#!
#29000
1"
1"!
1#!
#30000
1$
0"
1Z!
0"!
0#!
1[!
#31000
1"
1"!
1#!
1\!
1]!
#32000
0"
0"!
0#!
#33000
1"
1"!
1#!
1^!
0a!
#34000
0"
0"!
0#!
#35000
1"
1"!
1#!
1Q"
1b!
0Y!
1c!
#36000
0"
0"!
0#!
#37000
1"
1"!
1#!
1P"
0Q"
0d!
0b!
0c!
1Y!
1d!
1e!
1c!
0e!
#38000
0"
0"!
0#!
#39000
1"
1"!
1#!
1Q"
1b!
0Y!
0d!
0c!
1e!
#40000
0$
0"
0Z!
0"!
0#!
0[!
#41000
1"
1"!
1#!
1O"
0P"
0Q"
0\!
1f!
1d!
0b!
0e!
1c!
1Y!
0]!
0f!
1g!
1e!
0c!
0g!
#42000
0"
0"!
0#!
#43000
1"
1"!
1#!
1Q"
0^!
1b!
1a!
0Y!
1c!
#44000
0"
0"!
0#!
#45000
1"
1"!
1#!
0O"
0Q"
0b!
0e!
1Y!
0c!
#46000
0"
0"!
0#!
#47000
1"
1"!
1#!
#48000
0"
0"!
0#!
#49000
1"
1"!
1#!
#50000
1$
0"
1Z!
0"!
0#!
1[!
#51000
1"
1"!
1#!
1\!
1]!
#52000
0"
0"!
0#!
#53000
1"
1"!
1#!
1^!
0a!
#54000
0"
0"!
0#!
#55000
1"
1"!
1#!
1Q"
1b!
0Y!
1c!
#56000
0"
0"!
0#!
#57000
1"
1"!
1#!
1P"
0Q"
0d!
0b!
0c!
1Y!
1d!
1e!
1c!
0e!
#58000
0"
0"!
0#!
#59000
1"
1"!
1#!
1Q"
1b!
0Y!
0d!
0c!
1e!
#60000
0$
0"
0Z!
0"!
0#!
0[!
#61000
1"
1"!
1#!
1O"
0P"
0Q"
0\!
1f!
1d!
0b!
0e!
1c!
1Y!
0]!
0f!
1g!
1e!
0c!
0g!
#62000
0"
0"!
0#!
#63000
1"
1"!
1#!
1Q"
0^!
1b!
1a!
0Y!
1c!
#64000
0"
0"!
0#!
#65000
1"
1"!
1#!
0O"
0Q"
0b!
0e!
1Y!
0c!
#66000
0"
0"!
0#!
#67000
1"
1"!
1#!
#68000
0"
0"!
0#!
#69000
1"
1"!
1#!
#70000
1$
0"
1Z!
0"!
0#!
1[!
#71000
1"
1"!
1#!
1\!
1]!
#72000
0"
0"!
0#!
#73000
1"
1"!
1#!
1^!
0a!
#74000
0"
0"!
0#!
#75000
1"
1"!
1#!
1Q"
1b!
0Y!
1c!
#76000
0"
0"!
0#!
#77000
1"
1"!
1#!
1P"
0Q"
0d!
0b!
0c!
1Y!
1d!
1e!
1c!
0e!
#78000
0"
0"!
0#!
#79000
1"
1"!
1#!
1Q"
1b!
0Y!
0d!
0c!
1e!
#80000
0$
0"
0Z!
0"!
0#!
0[!
#81000
1"
1"!
1#!
1O"
0P"
0Q"
0\!
1f!
1d!
0b!
0e!
1c!
1Y!
0]!
0f!
1g!
1e!
0c!
0g!
#82000
0"
0"!
0#!
#83000
1"
1"!
1#!
1Q"
0^!
1b!
1a!
0Y!
1c!
#84000
0"
0"!
0#!
#85000
1"
1"!
1#!
0O"
0Q"
0b!
0e!
1Y!
0c!
#86000
0"
0"!
0#!
#87000
1"
1"!
1#!
#88000
0"
0"!
0#!
#89000
1"
1"!
1#!
#90000
1$
0"
1Z!
0"!
0#!
1[!
#91000
1"
1"!
1#!
1\!
1]!
#92000
0"
0"!
0#!
#93000
1"
1"!
1#!
1^!
0a!
#94000
0"
0"!
0#!
#95000
1"
1"!
1#!
1Q"
1b!
0Y!
1c!
#96000
0"
0"!
0#!
#97000
1"
1"!
1#!
1P"
0Q"
0d!
0b!
0c!
1Y!
1d!
1e!
1c!
0e!
#98000
0"
0"!
0#!
#99000
1"
1"!
1#!
1Q"
1b!
0Y!
0d!
0c!
1e!
#100000
0$
0"
0Z!
0"!
0#!
0[!
#101000
1"
1"!
1#!
1O"
0P"
0Q"
0\!
1f!
1d!
0b!
0e!
1c!
1Y!
0]!
0f!
1g!
1e!
0c!
0g!
#102000
0"
0"!
0#!
#103000
1"
1"!
1#!
1Q"
0^!
1b!
1a!
0Y!
1c!
#104000
0"
0"!
0#!
#105000
1"
1"!
1#!
0O"
0Q"
0b!
0e!
1Y!
0c!
#106000
0"
0"!
0#!
#107000
1"
1"!
1#!
#108000
0"
0"!
0#!
#109000
1"
1"!
1#!
#110000
1$
0"
1Z!
0"!
0#!
1[!
#111000
1"
1"!
1#!
1\!
1]!
#112000
0"
0"!
0#!
#113000
1"
1"!
1#!
1^!
0a!
#114000
0"
0"!
0#!
#115000
1"
1"!
1#!
1Q"
1b!
0Y!
1c!
#116000
0"
0"!
0#!
#117000
1"
1"!
1#!
1P"
0Q"
0d!
0b!
0c!
1Y!
1d!
1e!
1c!
0e!
#118000
0"
0"!
0#!
#119000
1"
1"!
1#!
1Q"
1b!
0Y!
0d!
0c!
1e!
#120000
0$
0"
0Z!
0"!
0#!
0[!
#121000
1"
1"!
1#!
1O"
0P"
0Q"
0\!
1f!
1d!
0b!
0e!
1c!
1Y!
0]!
0f!
1g!
1e!
0c!
0g!
#122000
0"
0"!
0#!
#123000
1"
1"!
1#!
1Q"
0^!
1b!
1a!
0Y!
1c!
#124000
0"
0"!
0#!
#125000
1"
1"!
1#!
0O"
0Q"
0b!
0e!
1Y!
0c!
#126000
0"
0"!
0#!
#127000
1"
1"!
1#!
#128000
0"
0"!
0#!
#129000
1"
1"!
1#!
#130000
1$
0"
1Z!
0"!
0#!
1[!
#131000
1"
1"!
1#!
1\!
1]!
#132000
0"
0"!
0#!
#133000
1"
1"!
1#!
1^!
0a!
#134000
0"
0"!
0#!
#135000
1"
1"!
1#!
1Q"
1b!
0Y!
1c!
#136000
0"
0"!
0#!
#137000
1"
1"!
1#!
1P"
0Q"
0d!
0b!
0c!
1Y!
1d!
1e!
1c!
0e!
#138000
0"
0"!
0#!
#139000
1"
1"!
1#!
1Q"
1b!
0Y!
0d!
0c!
1e!
#140000
0$
0"
0Z!
0"!
0#!
0[!
#141000
1"
1"!
1#!
1O"
0P"
0Q"
0\!
1f!
1d!
0b!
0e!
1c!
1Y!
0]!
0f!
1g!
1e!
0c!
0g!
#142000
0"
0"!
0#!
#143000
1"
1"!
1#!
1Q"
0^!
1b!
1a!
0Y!
1c!
#144000
0"
0"!
0#!
#145000
1"
1"!
1#!
0O"
0Q"
0b!
0e!
1Y!
0c!
#146000
0"
0"!
0#!
#147000
1"
1"!
1#!
#148000
0"
0"!
0#!
#149000
1"
1"!
1#!
#150000
1$
0"
1Z!
0"!
0#!
1[!
#151000
1"
1"!
1#!
1\!
1]!
#152000
0"
0"!
0#!
#153000
1"
1"!
1#!
1^!
0a!
#154000
0"
0"!
0#!
#155000
1"
1"!
1#!
1Q"
1b!
0Y!
1c!
#156000
0"
0"!
0#!
#157000
1"
1"!
1#!
1P"
0Q"
0d!
0b!
0c!
1Y!
1d!
1e!
1c!
0e!
#158000
0"
0"!
0#!
#159000
1"
1"!
1#!
1Q"
1b!
0Y!
0d!
0c!
1e!
#160000
0$
0"
0Z!
0"!
0#!
0[!
#161000
1"
1"!
1#!
1O"
0P"
0Q"
0\!
1f!
1d!
0b!
0e!
1c!
1Y!
0]!
0f!
1g!
1e!
0c!
0g!
#162000
0"
0"!
0#!
#163000
1"
1"!
1#!
1Q"
0^!
1b!
1a!
0Y!
1c!
#164000
0"
0"!
0#!
#165000
1"
1"!
1#!
0O"
0Q"
0b!
0e!
1Y!
0c!
#166000
0"
0"!
0#!
#167000
1"
1"!
1#!
#168000
0"
0"!
0#!
#169000
1"
1"!
1#!
#170000
1$
0"
1Z!
0"!
0#!
1[!
#171000
1"
1"!
1#!
1\!
1]!
#172000
0"
0"!
0#!
#173000
1"
1"!
1#!
1^!
0a!
#174000
0"
0"!
0#!
#175000
1"
1"!
1#!
1Q"
1b!
0Y!
1c!
#176000
0"
0"!
0#!
#177000
1"
1"!
1#!
1P"
0Q"
0d!
0b!
0c!
1Y!
1d!
1e!
1c!
0e!
#178000
0"
0"!
0#!
#179000
1"
1"!
1#!
1Q"
1b!
0Y!
0d!
0c!
1e!
#180000
0$
0"
0Z!
0"!
0#!
0[!
#181000
1"
1"!
1#!
1O"
0P"
0Q"
0\!
1f!
1d!
0b!
0e!
1c!
1Y!
0]!
0f!
1g!
1e!
0c!
0g!
#182000
0"
0"!
0#!
#183000
1"
1"!
1#!
1Q"
0^!
1b!
1a!
0Y!
1c!
#184000
0"
0"!
0#!
#185000
1"
1"!
1#!
0O"
0Q"
0b!
0e!
1Y!
0c!
#186000
0"
0"!
0#!
#187000
1"
1"!
1#!
#188000
0"
0"!
0#!
#189000
1"
1"!
1#!
#190000
1$
0"
1Z!
0"!
0#!
1[!
#191000
1"
1"!
1#!
1\!
1]!
#192000
0"
0"!
0#!
#193000
1"
1"!
1#!
1^!
0a!
#194000
0"
0"!
0#!
#195000
1"
1"!
1#!
1Q"
1b!
0Y!
1c!
#196000
0"
0"!
0#!
#197000
1"
1"!
1#!
1P"
0Q"
0d!
0b!
0c!
1Y!
1d!
1e!
1c!
0e!
#198000
0"
0"!
0#!
#199000
1"
1"!
1#!
1Q"
1b!
0Y!
0d!
0c!
1e!
#200000
0$
0"
0Z!
0"!
0#!
0[!
#201000
1"
1"!
1#!
1O"
0P"
0Q"
0\!
1f!
1d!
0b!
0e!
1c!
1Y!
0]!
0f!
1g!
1e!
0c!
0g!
#202000
0"
0"!
0#!
#203000
1"
1"!
1#!
1Q"
0^!
1b!
1a!
0Y!
1c!
#204000
0"
0"!
0#!
#205000
1"
1"!
1#!
0O"
0Q"
0b!
0e!
1Y!
0c!
#206000
0"
0"!
0#!
#207000
1"
1"!
1#!
#208000
0"
0"!
0#!
#209000
1"
1"!
1#!
#210000
1$
0"
1Z!
0"!
0#!
1[!
#211000
1"
1"!
1#!
1\!
1]!
#212000
0"
0"!
0#!
#213000
1"
1"!
1#!
1^!
0a!
#214000
0"
0"!
0#!
#215000
1"
1"!
1#!
1Q"
1b!
0Y!
1c!
#216000
0"
0"!
0#!
#217000
1"
1"!
1#!
1P"
0Q"
0d!
0b!
0c!
1Y!
1d!
1e!
1c!
0e!
#218000
0"
0"!
0#!
#219000
1"
1"!
1#!
1Q"
1b!
0Y!
0d!
0c!
1e!
#220000
0$
0"
0Z!
0"!
0#!
0[!
#221000
1"
1"!
1#!
1O"
0P"
0Q"
0\!
1f!
1d!
0b!
0e!
1c!
1Y!
0]!
0f!
1g!
1e!
0c!
0g!
#222000
0"
0"!
0#!
#223000
1"
1"!
1#!
1Q"
0^!
1b!
1a!
0Y!
1c!
#224000
0"
0"!
0#!
#225000
1"
1"!
1#!
0O"
0Q"
0b!
0e!
1Y!
0c!
#226000
0"
0"!
0#!
#227000
1"
1"!
1#!
#228000
0"
0"!
0#!
#229000
1"
1"!
1#!
#230000
1$
0"
1Z!
0"!
0#!
1[!
#231000
1"
1"!
1#!
1\!
1]!
#232000
0"
0"!
0#!
#233000
1"
1"!
1#!
1^!
0a!
#234000
0"
0"!
0#!
#235000
1"
1"!
1#!
1Q"
1b!
0Y!
1c!
#236000
0"
0"!
0#!
#237000
1"
1"!
1#!
1P"
0Q"
0d!
0b!
0c!
1Y!
1d!
1e!
1c!
0e!
#238000
0"
0"!
0#!
#239000
1"
1"!
1#!
1Q"
1b!
0Y!
0d!
0c!
1e!
#240000
0$
0"
0Z!
0"!
0#!
0[!
#241000
1"
1"!
1#!
1O"
0P"
0Q"
0\!
1f!
1d!
0b!
0e!
1c!
1Y!
0]!
0f!
1g!
1e!
0c!
0g!
#242000
0"
0"!
0#!
#243000
1"
1"!
1#!
1Q"
0^!
1b!
1a!
0Y!
1c!
#244000
0"
0"!
0#!
#245000
1"
1"!
1#!
0O"
0Q"
0b!
0e!
1Y!
0c!
#246000
0"
0"!
0#!
#247000
1"
1"!
1#!
#248000
0"
0"!
0#!
#249000
1"
1"!
1#!
#250000
1$
0"
1Z!
0"!
0#!
1[!
#251000
1"
1"!
1#!
1\!
1]!
#252000
0"
0"!
0#!
#253000
1"
1"!
1#!
1^!
0a!
#254000
0"
0"!
0#!
#255000
1"
1"!
1#!
1Q"
1b!
0Y!
1c!
#256000
0"
0"!
0#!
#257000
1"
1"!
1#!
1P"
0Q"
0d!
0b!
0c!
1Y!
1d!
1e!
1c!
0e!
#258000
0"
0"!
0#!
#259000
1"
1"!
1#!
1Q"
1b!
0Y!
0d!
0c!
1e!
#260000
0$
0"
0Z!
0"!
0#!
0[!
#261000
1"
1"!
1#!
1O"
0P"
0Q"
0\!
1f!
1d!
0b!
0e!
1c!
1Y!
0]!
0f!
1g!
1e!
0c!
0g!
#262000
0"
0"!
0#!
#263000
1"
1"!
1#!
1Q"
0^!
1b!
1a!
0Y!
1c!
#264000
0"
0"!
0#!
#265000
1"
1"!
1#!
0O"
0Q"
0b!
0e!
1Y!
0c!
#266000
0"
0"!
0#!
#267000
1"
1"!
1#!
#268000
0"
0"!
0#!
#269000
1"
1"!
1#!
#270000
1$
0"
1Z!
0"!
0#!
1[!
#271000
1"
1"!
1#!
1\!
1]!
#272000
0"
0"!
0#!
#273000
1"
1"!
1#!
1^!
0a!
#274000
0"
0"!
0#!
#275000
1"
1"!
1#!
1Q"
1b!
0Y!
1c!
#276000
0"
0"!
0#!
#277000
1"
1"!
1#!
1P"
0Q"
0d!
0b!
0c!
1Y!
1d!
1e!
1c!
0e!
#278000
0"
0"!
0#!
#279000
1"
1"!
1#!
1Q"
1b!
0Y!
0d!
0c!
1e!
#280000
0$
0"
0Z!
0"!
0#!
0[!
#281000
1"
1"!
1#!
1O"
0P"
0Q"
0\!
1f!
1d!
0b!
0e!
1c!
1Y!
0]!
0f!
1g!
1e!
0c!
0g!
#282000
0"
0"!
0#!
#283000
1"
1"!
1#!
1Q"
0^!
1b!
1a!
0Y!
1c!
#284000
0"
0"!
0#!
#285000
1"
1"!
1#!
0O"
0Q"
0b!
0e!
1Y!
0c!
#286000
0"
0"!
0#!
#287000
1"
1"!
1#!
#288000
0"
0"!
0#!
#289000
1"
1"!
1#!
