FS_11_2/simulation/qsim/FS11_2.msim.vcd
$comment
	File created using the following command:
		vcd file FS11_2.msim.vcd -direction
$end
$date
	Wed Mar 26 16:28:38 2025
$end
$version
	ModelSim Version 10.5b
$end
$timescale
	1ps
$end

$scope module Comparaison_vlg_vec_tst $end
$var reg 16 ! Code [15:0] $end
$var wire 1 " CodeTF $end

$scope module i1 $end
$var wire 1 # gnd $end
$var wire 1 $ vcc $end
$var wire 1 % unknown $end
$var tri1 1 & devclrn $end
$var tri1 1 ' devpor $end
$var tri1 1 ( devoe $end
$var wire 1 ) CodeTF~output_o $end
$var wire 1 * Code[14]~input_o $end
$var wire 1 + Code[12]~input_o $end
$var wire 1 , Code[15]~input_o $end
$var wire 1 - Code[13]~input_o $end
$var wire 1 . inst|LPM_COMPARE_component|auto_generated|aneb_result_wire[0]~0_combout $end
$var wire 1 / Code[11]~input_o $end
$var wire 1 0 Code[9]~input_o $end
$var wire 1 1 Code[10]~input_o $end
$var wire 1 2 Code[8]~input_o $end
$var wire 1 3 inst|LPM_COMPARE_component|auto_generated|aneb_result_wire[0]~1_combout $end
$var wire 1 4 Code[7]~input_o $end
$var wire 1 5 Code[5]~input_o $end
$var wire 1 6 Code[4]~input_o $end
$var wire 1 7 Code[6]~input_o $end
$var wire 1 8 inst|LPM_COMPARE_component|auto_generated|aneb_result_wire[0]~2_combout $end
$var wire 1 9 Code[3]~input_o $end
$var wire 1 : Code[2]~input_o $end
$var wire 1 ; Code[0]~input_o $end
$var wire 1 < Code[1]~input_o $end
$var wire 1 = inst|LPM_COMPARE_component|auto_generated|aneb_result_wire[0]~3_combout $end
$var wire 1 > inst|LPM_COMPARE_component|auto_generated|aneb_result_wire[0]~4_combout $end
$upscope $end
$upscope $end
$enddefinitions $end
#0
$dumpvars
b0 !
0"
0#
1$
x%
1&
1'
1(
0)
0*
0+
0,
0-
1.
0/
00
01
02
13
04
05
06
07
18
09
0:
0;
0<
1=
1>
$end
#640000
b1000000000000000 !
b1010000000000000 !
b1011000000000000 !
b1011100000000000 !
b1011101000000000 !
b1011101010000000 !
b1011101010010000 !
b1011101010010100 !
b1011101010010110 !
1<
1:
16
14
10
1/
1+
1-
1,
#3640000
b1011101010110110 !
b1011101010111110 !
b1011101010111111 !
b1011001010111111 !
b1011000010111111 !
b1011000000111111 !
b1011000000101111 !
b1011000000101011 !
1;
0:
19
06
15
04
00
0/
#6640000
b1111000000101011 !
b1111010000101011 !
b1111010001101011 !
b1110010001101011 !
b1110010001100011 !
b1110110001100011 !
b1110110011100011 !
09
17
14
11
1/
0+
1*
#9640000
b1100110011100011 !
b1100110011100001 !
b1100110011100000 !
b1100111011100000 !
b1100111010100000 !
b1100111010101000 !
b1100011010101000 !
b1100011000101000 !
0;
0<
19
07
04
10
0/
0-
#12640000
b1100011000111000 !
b1000011000111000 !
b1010011000111000 !
b1010011000111001 !
b1010111000111001 !
1;
16
1/
1-
0*
0.
#15640000
b1010111100111001 !
b1011111100111001 !
b1011110100111001 !
b1011110101111001 !
b1011110111111001 !
b1001110111111001 !
17
14
12
00
1+
0-
1.
#18640000
b1110111111001 !
b1110111111101 !
b1110111111111 !
b1110111110111 !
b1110111100111 !
b101110111100111 !
b101110111100110 !
b100110111100110 !
b110110111100110 !
0;
1<
1:
09
06
0+
1-
1*
0,
#21640000
b110111111100110 !
b110111110100110 !
b110111100100110 !
b110111100100100 !
b110111100110100 !
b10111100110100 !
0<
16
07
04
10
0*
#24640000
b10111100010100 !
b10101100010100 !
b10101100011100 !
b101100011100 !
b101101011100 !
b101111011100 !
b101111011110 !
b101111001110 !
1<
19
06
05
17
14
01
0-
#27640000
b1111001110 !
b1000001111001110 !
b1000001111001010 !
b1000001111001011 !
b1000000111001011 !
b1010000111001011 !
b1010000110001011 !
b1010000110001001 !
1;
0<
0:
07
00
0/
1-
1,
0.
#30640000
b1010000100001001 !
b1010000100011001 !
b10000100011001 !
b10001100011001 !
16
04
10
0,
1.
#33640000
b11001100011001 !
b11001100111001 !
b11011100111001 !
b11011100110001 !
b11111100110001 !
b11111100110000 !
b1111100110000 !
b1111100110010 !
b1111100100010 !
b1110100100010 !
0;
1<
09
06
15
00
11
1/
1+
0-
0=
#36640000
b1110000100010 !
b101110000100010 !
b101110010100010 !
b1101110010100010 !
b1100110010100010 !
b1100110010000010 !
b1100100010000010 !
b1100100010001010 !
b1100000010001010 !
b1100000010001011 !
b1100000010001001 !
1;
0<
19
05
14
02
01
0/
0+
1*
1,
1=
#37120000
b1000000010001001 !
b1000000000001001 !
b1001 !
b1 !
b0 !
0;
09
04
0*
0,
#37760000
b1000000 !
b10000001000000 !
b10000101000000 !
b10010101000000 !
b10010101000010 !
b1010010101000010 !
1<
17
12
11
1-
1,
0=
08
03
0.
0>
1)
1"
#55680000
b1010010100000010 !
b1000010100000010 !
b1000010000000010 !
b1000000000000010 !
b1000000000000000 !
b0 !
0<
07
02
01
0-
0,
1=
18
13
1.
1>
0)
0"
#56320000
b100 !
b10100 !
b100000010100 !
b100100000010100 !
b100100000011100 !
b110100000011100 !
b110100100011100 !
b110100100011110 !
b1110100100011110 !
1<
1:
19
16
12
1/
1-
1*
1,
#59320000
b1110101100011110 !
b1110101110011110 !
b1110111110011110 !
b1100111110011110 !
b1100111010011110 !
b1100111010011100 !
0<
14
02
10
11
0-
#62320000
b1100111010111100 !
b1100111011111100 !
b1100111011111000 !
b1100011011111000 !
b1000011011111000 !
b1000001011111000 !
b1000001111111000 !
0:
15
17
12
01
0/
0*
#65320000
b1000001111101000 !
b1000001111100000 !
b1111100000 !
b1101100000 !
b10001101100000 !
b10001101000000 !
b10001100000000 !
b10001100000100 !
b10101100000100 !
b110101100000100 !
b110111100000100 !
b110111000000100 !
1:
09
06
05
07
04
02
11
1/
1-
1*
0,
#68320000
b111111000000100 !
b111111000000101 !
b111111010000101 !
b101111010000101 !
b101111010100101 !
b101111011100101 !
b101111011100001 !
b1111011100001 !
b1101011100001 !
1;
0:
15
17
14
01
1+
0-
0*
#71320000
b1100011100001 !
b1100011100011 !
b1100111100011 !
b1100111100010 !
b11100111100010 !
b11100111000010 !
b11100110000010 !
b11110110000010 !
0;
1<
05
07
12
00
11
1-
0=
#74320000
b1011110110000010 !
b1011010110000010 !
b1011010100000010 !
b1011010100000110 !
b1111010100000110 !
b1111010100000111 !
b1101010100000111 !
b1101010100100111 !
b1101010101100111 !
1;
1:
15
17
04
0/
0-
1*
1,
1=
03
#77320000
b1101010101110111 !
b1100010101110111 !
b1100010101110101 !
b100010101110101 !
b100110101110101 !
b110101110101 !
b10110101110101 !
b10110101010101 !
b10110100010101 !
0<
16
05
07
1/
0+
1-
0*
0,
13
#80320000
b10110100011101 !
b10100100011101 !
b10100100011100 !
b10100100011110 !
b110100100011110 !
b110100100111110 !
0;
1<
19
15
01
1*
#83320000
b110100100111010 !
b110100100101010 !
b110100101101010 !
b110100101101011 !
b110100101101001 !
b10100101101001 !
1;
0<
0:
06
17
0*
#86320000
b10101101101001 !
b101101101001 !
b101101100001 !
b111101100001 !
b111101100101 !
b111101110101 !
b111100110101 !
b111100110100 !
b111100110110 !
b100111100110110 !
0;
1<
1:
09
16
07
10
11
0-
1*
#89320000
b101111100110110 !
b101011100110110 !
b101011100111110 !
b101001100111110 !
b101001100101110 !
b101001100101111 !
b101001100101101 !
1;
0<
19
06
01
0/
1+
#92320000
b101001000101101 !
b101001010101101 !
b1101001010101101 !
b1101001010001101 !
b1101000010001101 !
b1111000010001101 !
b1111000010001001 !
b1111010010001001 !
b1111010010001000 !
b1111010010001010 !
0;
1<
0:
05
14
02
00
11
1-
1,
#95320000
b1111010010000010 !
b1111010110000010 !
b111010110000010 !
b111010110100010 !
b111011110100010 !
b101011110100010 !
b101011110100110 !
b101001110100110 !
b101001110100111 !
1;
1:
09
15
12
10
01
0-
0,
#98320000
b101001111100111 !
b100001111100111 !
b100101111100111 !
b100101101100111 !
b100101101100110 !
0;
17
04
1/
0+
#98560000
b101101100110 !
b101101100100 !
b101001100100 !
b101001000100 !
b100001000100 !
b100001000000 !
b100000000000 !
b0 !
0<
0:
05
07
02
00
0/
0*
