HDL_TP2_EX4/simulation/qsim/HDL_TP1_EX3_afficheur7s.msim.vcd
$comment
	File created using the following command:
		vcd file HDL_TP1_EX3_afficheur7s.msim.vcd -direction
$end
$date
	Mon Sep 22 15:21:52 2025
$end
$version
	ModelSim Version 10.5b
$end
$timescale
	1ps
$end

$scope module afficheur7s_vlg_vec_tst $end
$var reg 4 ! E [3:0] $end
$var wire 1 " S [0] $end
$var wire 1 # S [1] $end
$var wire 1 $ S [2] $end
$var wire 1 % S [3] $end
$var wire 1 & S [4] $end
$var wire 1 ' S [5] $end
$var wire 1 ( S [6] $end

$scope module i1 $end
$var wire 1 ) gnd $end
$var wire 1 * vcc $end
$var wire 1 + unknown $end
$var tri1 1 , devclrn $end
$var tri1 1 - devpor $end
$var tri1 1 . devoe $end
$var wire 1 / S[6]~output_o $end
$var wire 1 0 S[5]~output_o $end
$var wire 1 1 S[4]~output_o $end
$var wire 1 2 S[3]~output_o $end
$var wire 1 3 S[2]~output_o $end
$var wire 1 4 S[1]~output_o $end
$var wire 1 5 S[0]~output_o $end
$var wire 1 6 E[0]~input_o $end
$var wire 1 7 E[1]~input_o $end
$var wire 1 8 E[2]~input_o $end
$var wire 1 9 E[3]~input_o $end
$var wire 1 : WideOr6~0_combout $end
$var wire 1 ; WideOr5~0_combout $end
$var wire 1 < WideOr4~0_combout $end
$var wire 1 = WideOr3~0_combout $end
$var wire 1 > WideOr2~0_combout $end
$var wire 1 ? WideOr1~0_combout $end
$var wire 1 @ WideOr0~0_combout $end
$upscope $end
$upscope $end
$enddefinitions $end
#0
$dumpvars
b0 !
0(
1'
1&
1%
1$
1#
1"
0)
1*
x+
1,
1-
1.
0/
10
11
12
13
14
15
06
07
08
09
0:
0;
0<
0=
0>
0?
0@
$end
#16000
b1 !
16
1@
1=
1<
1;
00
01
02
05
0"
0%
0&
0'
#32000
b11 !
b10 !
06
17
0@
1>
0=
0<
1:
1/
11
12
03
15
1"
0$
1%
1&
1(
#48000
b11 !
16
0>
1<
01
13
1$
0&
#64000
b111 !
b101 !
b100 !
06
07
18
1@
1=
0;
10
02
05
0"
0%
1'
#80000
b101 !
16
0@
1?
0=
12
04
15
1"
0#
1%
#96000
b111 !
b110 !
06
17
0<
11
1&
#112000
b111 !
16
0?
1=
1<
0:
0/
01
02
14
1#
0%
0&
0(
#128000
b1111 !
b1011 !
b1001 !
b1000 !
06
07
08
19
0=
0<
1:
1/
11
12
1%
1&
1(
#144000
b1001 !
16
1<
01
0&
#160000
b1011 !
b1010 !
06
17
1=
0<
11
02
0%
1&
#176000
b1011 !
16
1@
1?
0=
12
04
05
0"
0#
1%
#192000
b1111 !
b1101 !
b1100 !
06
07
18
0@
1>
0:
0/
03
15
1"
0$
0(
#208000
b1101 !
16
1@
0?
0>
1;
1:
1/
00
13
14
05
0"
1#
1$
0'
1(
#224000
b1111 !
b1110 !
06
17
0@
1?
1>
0;
10
03
04
15
1"
0#
0$
1'
#240000
b1111 !
16
1=
02
0%
#256000
b111 !
b11 !
b1 !
b0 !
06
07
08
09
0?
0>
0=
0:
0/
12
13
14
1#
1$
1%
0(
#272000
b1 !
16
1@
1=
1<
1;
00
01
02
05
0"
0%
0&
0'
#288000
b11 !
b10 !
06
17
0@
1>
0=
0<
1:
1/
11
12
03
15
1"
0$
1%
1&
1(
#304000
b11 !
16
0>
1<
01
13
1$
0&
#320000
b111 !
b101 !
b100 !
06
07
18
1@
1=
0;
10
02
05
0"
0%
1'
#336000
b101 !
16
0@
1?
0=
12
04
15
1"
0#
1%
#352000
b111 !
b110 !
06
17
0<
11
1&
#368000
b111 !
16
0?
1=
1<
0:
0/
01
02
14
1#
0%
0&
0(
#384000
b1111 !
b1011 !
b1001 !
b1000 !
06
07
08
19
0=
0<
1:
1/
11
12
1%
1&
1(
#400000
b1001 !
16
1<
01
0&
#416000
b1011 !
b1010 !
06
17
1=
0<
11
02
0%
1&
#432000
b1011 !
16
1@
1?
0=
12
04
05
0"
0#
1%
#448000
b1111 !
b1101 !
b1100 !
06
07
18
0@
1>
0:
0/
03
15
1"
0$
0(
#464000
b1101 !
16
1@
0?
0>
1;
1:
1/
00
13
14
05
0"
1#
1$
0'
1(
#480000
b1111 !
b1110 !
06
17
0@
1?
1>
0;
10
03
04
15
1"
0#
0$
1'
#496000
b1111 !
16
1=
02
0%
#512000
b111 !
b11 !
b1 !
b0 !
06
07
08
09
0?
0>
0=
0:
0/
12
13
14
1#
1$
1%
0(
#528000
b1 !
16
1@
1=
1<
1;
00
01
02
05
0"
0%
0&
0'
#544000
b11 !
b10 !
06
17
0@
1>
0=
0<
1:
1/
11
12
03
15
1"
0$
1%
1&
1(
#560000
b11 !
16
0>
1<
01
13
1$
0&
#576000
b111 !
b101 !
b100 !
06
07
18
1@
1=
0;
10
02
05
0"
0%
1'
#592000
b101 !
16
0@
1?
0=
12
04
15
1"
0#
1%
#608000
b111 !
b110 !
06
17
0<
11
1&
#624000
b111 !
16
0?
1=
1<
0:
0/
01
02
14
1#
0%
0&
0(
#640000
b1111 !
b1011 !
b1001 !
b1000 !
06
07
08
19
0=
0<
1:
1/
11
12
1%
1&
1(
#656000
b1001 !
16
1<
01
0&
#672000
b1011 !
b1010 !
06
17
1=
0<
11
02
0%
1&
#688000
b1011 !
16
1@
1?
0=
12
04
05
0"
0#
1%
#704000
b1111 !
b1101 !
b1100 !
06
07
18
0@
1>
0:
0/
03
15
1"
0$
0(
#720000
b1101 !
16
1@
0?
0>
1;
1:
1/
00
13
14
05
0"
1#
1$
0'
1(
#736000
b1111 !
b1110 !
06
17
0@
1?
1>
0;
10
03
04
15
1"
0#
0$
1'
#752000
b1111 !
16
1=
02
0%
#768000
b111 !
b11 !
b1 !
b0 !
06
07
08
09
0?
0>
0=
0:
0/
12
13
14
1#
1$
1%
0(
#784000
b1 !
16
1@
1=
1<
1;
00
01
02
05
0"
0%
0&
0'
#800000
b11 !
b10 !
06
17
0@
1>
0=
0<
1:
1/
11
12
03
15
1"
0$
1%
1&
1(
#816000
b11 !
16
0>
1<
01
13
1$
0&
#832000
b111 !
b101 !
b100 !
06
07
18
1@
1=
0;
10
02
05
0"
0%
1'
#848000
b101 !
16
0@
1?
0=
12
04
15
1"
0#
1%
#864000
b111 !
b110 !
06
17
0<
11
1&
#880000
b111 !
16
0?
1=
1<
0:
0/
01
02
14
1#
0%
0&
0(
#896000
b1111 !
b1011 !
b1001 !
b1000 !
06
07
08
19
0=
0<
1:
1/
11
12
1%
1&
1(
#912000
b1001 !
16
1<
01
0&
#928000
b1011 !
b1010 !
06
17
1=
0<
11
02
0%
1&
#944000
b1011 !
16
1@
1?
0=
12
04
05
0"
0#
1%
#960000
b1111 !
b1101 !
b1100 !
06
07
18
0@
1>
0:
0/
03
15
1"
0$
0(
#976000
b1101 !
16
1@
0?
0>
1;
1:
1/
00
13
14
05
0"
1#
1$
0'
1(
#992000
b1111 !
b1110 !
06
17
0@
1?
1>
0;
10
03
04
15
1"
0#
0$
1'
