FS_11_3/simulation/qsim/FS11_3.msim.vcd
$comment
	File created using the following command:
		vcd file FS11_3.msim.vcd -direction
$end
$date
	Wed Mar 26 16:58:11 2025
$end
$version
	ModelSim Version 10.5b
$end
$timescale
	1ps
$end

$scope module Transcodage_vlg_vec_tst $end
$var reg 16 ! Code [15:0] $end
$var wire 1 " d1 [0] $end
$var wire 1 # d1 [1] $end
$var wire 1 $ d1 [2] $end
$var wire 1 % d1 [3] $end
$var wire 1 & d1 [4] $end
$var wire 1 ' d1 [5] $end
$var wire 1 ( d1 [6] $end

$scope module i1 $end
$var wire 1 ) gnd $end
$var wire 1 * vcc $end
$var wire 1 + unknown $end
$var tri1 1 , devclrn $end
$var tri1 1 - devpor $end
$var tri1 1 . devoe $end
$var wire 1 / Code[15]~input_o $end
$var wire 1 0 Code[14]~input_o $end
$var wire 1 1 Code[13]~input_o $end
$var wire 1 2 Code[12]~input_o $end
$var wire 1 3 Code[11]~input_o $end
$var wire 1 4 Code[10]~input_o $end
$var wire 1 5 Code[9]~input_o $end
$var wire 1 6 Code[8]~input_o $end
$var wire 1 7 Code[7]~input_o $end
$var wire 1 8 Code[6]~input_o $end
$var wire 1 9 Code[5]~input_o $end
$var wire 1 : Code[3]~input_o $end
$var wire 1 ; d1[0]~output_o $end
$var wire 1 < d1[1]~output_o $end
$var wire 1 = d1[2]~output_o $end
$var wire 1 > d1[3]~output_o $end
$var wire 1 ? d1[4]~output_o $end
$var wire 1 @ d1[5]~output_o $end
$var wire 1 A d1[6]~output_o $end
$var wire 1 B Code[0]~input_o $end
$var wire 1 C Code[2]~input_o $end
$var wire 1 D Code[1]~input_o $end
$var wire 1 E Code[4]~input_o $end
$var wire 1 F inst|80~0_combout $end
$var wire 1 G inst|81~0_combout $end
$var wire 1 H inst|82~0_combout $end
$var wire 1 I inst|83~0_combout $end
$var wire 1 J inst|84~0_combout $end
$var wire 1 K inst|85~0_combout $end
$var wire 1 L inst|86~0_combout $end
$upscope $end
$upscope $end
$enddefinitions $end
#0
$dumpvars
b0 !
1(
0'
0&
0%
0$
0#
0"
0)
1*
x+
1,
1-
1.
0/
00
01
02
03
04
05
06
07
08
09
0:
0;
0<
0=
0>
0?
0@
1A
0B
0C
0D
0E
1F
1G
0H
1I
1J
1K
1L
$end
#1000000
b1 !
1B
0K
0J
0I
0F
1;
1>
1?
1@
1'
1&
1%
1"
#2000000
b11 !
b10 !
0B
1D
1J
1I
1F
0L
1H
1=
0A
0;
0>
0?
0&
0%
0"
0(
1$
#3000000
b11 !
1B
0J
0H
0=
1?
1&
0$
#4000000
b111 !
b101 !
b100 !
0B
0D
1C
1K
0I
0F
1;
1>
0@
0'
1%
1"
#5000000
b101 !
1B
1I
0G
1F
0;
1<
0>
0%
1#
0"
#6000000
b111 !
b110 !
0B
1D
1J
0?
0&
#7000000
b111 !
1B
0K
0J
0I
1G
1L
1A
0<
1>
1?
1@
1'
1&
1%
0#
1(
#8000000
b1111 !
b1011 !
b1001 !
b1000 !
0B
0D
0C
1:
1K
1J
1I
0>
0?
0@
0'
0&
0%
#9000000
b1001 !
1B
0K
0J
0I
0F
1;
1>
1?
1@
1'
1&
1%
1"
#10000000
b1011 !
b1010 !
0B
1D
1J
1I
1F
0L
1H
1=
0A
0;
0>
0?
0&
0%
0"
0(
1$
#11000000
b1011 !
1B
0J
0H
0=
1?
1&
0$
#12000000
b1111 !
b1101 !
b1100 !
0B
0D
1C
1K
0I
0F
1;
1>
0@
0'
1%
1"
#13000000
b1101 !
1B
1I
0G
1F
0;
1<
0>
0%
1#
0"
#14000000
b1111 !
b1110 !
0B
1D
1J
0?
0&
#15000000
b1111 !
1B
0K
0J
0I
1G
1L
1A
0<
1>
1?
1@
1'
1&
1%
0#
1(
#16000000
b11111 !
b10111 !
b10011 !
b10001 !
b10000 !
0B
0D
0C
0:
1E
1K
1J
1I
0L
0A
0>
0?
0@
0'
0&
0%
0(
#17000000
b10001 !
1B
0J
1?
1&
#18000000
b10011 !
b10010 !
0B
1D
0K
1J
0G
0F
1H
1=
1;
1<
0?
1@
1'
0&
1#
1"
1$
#19000000
b10011 !
1B
0J
0H
0=
1?
1&
0$
#20000000
b10111 !
b10101 !
b10100 !
0B
0D
1C
1K
0I
1G
1H
1=
0<
1>
0@
0'
1%
0#
1$
#21000000
b10101 !
1B
1I
0G
1F
0;
1<
0>
0%
1#
0"
#22000000
b10111 !
b10110 !
0B
1D
1J
0F
1;
0?
0&
1"
#23000000
b10111 !
1B
0K
0J
0I
1L
1A
1>
1?
1@
1'
1&
1%
1(
#24000000
b11111 !
b11011 !
b11001 !
b11000 !
0B
0D
0C
1:
1K
1J
1I
1G
1F
0L
0H
0=
0A
0;
0<
0>
0?
0@
0'
0&
0%
0#
0"
0(
0$
#25000000
b11001 !
1B
0J
1?
1&
#26000000
b11011 !
b11010 !
0B
1D
0K
1J
0G
0F
1H
1=
1;
1<
0?
1@
1'
0&
1#
1"
1$
#27000000
b11011 !
1B
0J
0H
0=
1?
1&
0$
#28000000
b11111 !
b11101 !
b11100 !
0B
0D
1C
1K
0I
1G
1H
1=
0<
1>
0@
0'
1%
0#
1$
#29000000
b11101 !
1B
1I
0G
1F
0;
1<
0>
0%
1#
0"
#30000000
b11111 !
b11110 !
0B
1D
1J
0F
1;
0?
0&
1"
#31000000
b11111 !
1B
0K
0J
0I
1L
1A
1>
1?
1@
1'
1&
1%
1(
#32000000
b111111 !
b101111 !
b100111 !
b100011 !
b100001 !
b100000 !
0B
0D
0C
0:
0E
19
1K
1J
1I
1G
1F
0H
0=
0;
0<
0>
0?
0@
0'
0&
0%
0#
0"
0$
#33000000
b100001 !
1B
0K
0J
0I
0F
1;
1>
1?
1@
1'
1&
1%
1"
#34000000
b100011 !
b100010 !
0B
1D
1J
1I
1F
0L
1H
1=
0A
0;
0>
0?
0&
0%
0"
0(
1$
#35000000
b100011 !
1B
0J
0H
0=
1?
1&
0$
#36000000
b100111 !
b100101 !
b100100 !
0B
0D
1C
1K
0I
0F
1;
1>
0@
0'
1%
1"
#37000000
b100101 !
1B
1I
0G
1F
0;
1<
0>
0%
1#
0"
#38000000
b100111 !
b100110 !
0B
1D
1J
0?
0&
#39000000
b100111 !
1B
0K
0J
0I
1G
1L
1A
0<
1>
1?
1@
1'
1&
1%
0#
1(
#40000000
b101111 !
b101011 !
b101001 !
b101000 !
0B
0D
0C
1:
1K
1J
1I
0>
0?
0@
0'
0&
0%
#41000000
b101001 !
1B
0K
0J
0I
0F
1;
1>
1?
1@
1'
1&
1%
1"
#42000000
b101011 !
b101010 !
0B
1D
1J
1I
1F
0L
1H
1=
0A
0;
0>
0?
0&
0%
0"
0(
1$
#43000000
b101011 !
1B
0J
0H
0=
1?
1&
0$
#44000000
b101111 !
b101101 !
b101100 !
0B
0D
1C
1K
0I
0F
1;
1>
0@
0'
1%
1"
#45000000
b101101 !
1B
1I
0G
1F
0;
1<
0>
0%
1#
0"
#46000000
b101111 !
b101110 !
0B
1D
1J
0?
0&
#47000000
b101111 !
1B
0K
0J
0I
1G
1L
1A
0<
1>
1?
1@
1'
1&
1%
0#
1(
#48000000
b111111 !
b110111 !
b110011 !
b110001 !
b110000 !
0B
0D
0C
0:
1E
1K
1J
1I
0L
0A
0>
0?
0@
0'
0&
0%
0(
#49000000
b110001 !
1B
0J
1?
1&
#50000000
b110011 !
b110010 !
0B
1D
0K
1J
0G
0F
1H
1=
1;
1<
0?
1@
1'
0&
1#
1"
1$
#51000000
b110011 !
1B
0J
0H
0=
1?
1&
0$
#52000000
b110111 !
b110101 !
b110100 !
0B
0D
1C
1K
0I
1G
1H
1=
0<
1>
0@
0'
1%
0#
1$
#53000000
b110101 !
1B
1I
0G
1F
0;
1<
0>
0%
1#
0"
#54000000
b110111 !
b110110 !
0B
1D
1J
0F
1;
0?
0&
1"
#55000000
b110111 !
1B
0K
0J
0I
1L
1A
1>
1?
1@
1'
1&
1%
1(
#56000000
b111111 !
b111011 !
b111001 !
b111000 !
0B
0D
0C
1:
1K
1J
1I
1G
1F
0L
0H
0=
0A
0;
0<
0>
0?
0@
0'
0&
0%
0#
0"
0(
0$
#57000000
b111001 !
1B
0J
1?
1&
#58000000
b111011 !
b111010 !
0B
1D
0K
1J
0G
0F
1H
1=
1;
1<
0?
1@
1'
0&
1#
1"
1$
#59000000
b111011 !
1B
0J
0H
0=
1?
1&
0$
#60000000
b111111 !
b111101 !
b111100 !
0B
0D
1C
1K
0I
1G
1H
1=
0<
1>
0@
0'
1%
0#
1$
#61000000
b111101 !
1B
1I
0G
1F
0;
1<
0>
0%
1#
0"
#62000000
b111111 !
b111110 !
0B
1D
1J
0F
1;
0?
0&
1"
#63000000
b111111 !
1B
0K
0J
0I
1L
1A
1>
1?
1@
1'
1&
1%
1(
#64000000
b1111111 !
b1011111 !
b1001111 !
b1000111 !
b1000011 !
b1000001 !
b1000000 !
0B
0D
0C
0:
0E
09
18
1K
1J
1I
1G
1F
0H
0=
0;
0<
0>
0?
0@
0'
0&
0%
0#
0"
0$
#65000000
b1000001 !
1B
0K
0J
0I
0F
1;
1>
1?
1@
1'
1&
1%
1"
#66000000
b1000011 !
b1000010 !
0B
1D
1J
1I
1F
0L
1H
1=
0A
0;
0>
0?
0&
0%
0"
0(
1$
#67000000
b1000011 !
1B
0J
0H
0=
1?
1&
0$
#68000000
b1000111 !
b1000101 !
b1000100 !
0B
0D
1C
1K
0I
0F
1;
1>
0@
0'
1%
1"
#69000000
b1000101 !
1B
1I
0G
1F
0;
1<
0>
0%
1#
0"
#70000000
b1000111 !
b1000110 !
0B
1D
1J
0?
0&
#71000000
b1000111 !
1B
0K
0J
0I
1G
1L
1A
0<
1>
1?
1@
1'
1&
1%
0#
1(
#72000000
b1001111 !
b1001011 !
b1001001 !
b1001000 !
0B
0D
0C
1:
1K
1J
1I
0>
0?
0@
0'
0&
0%
#73000000
b1001001 !
1B
0K
0J
0I
0F
1;
1>
1?
1@
1'
1&
1%
1"
#74000000
b1001011 !
b1001010 !
0B
1D
1J
1I
1F
0L
1H
1=
0A
0;
0>
0?
0&
0%
0"
0(
1$
#75000000
b1001011 !
1B
0J
0H
0=
1?
1&
0$
#76000000
b1001111 !
b1001101 !
b1001100 !
0B
0D
1C
1K
0I
0F
1;
1>
0@
0'
1%
1"
#77000000
b1001101 !
1B
1I
0G
1F
0;
1<
0>
0%
1#
0"
#78000000
b1001111 !
b1001110 !
0B
1D
1J
0?
0&
#79000000
b1001111 !
1B
0K
0J
0I
1G
1L
1A
0<
1>
1?
1@
1'
1&
1%
0#
1(
#80000000
b1011111 !
b1010111 !
b1010011 !
b1010001 !
b1010000 !
0B
0D
0C
0:
1E
1K
1J
1I
0L
0A
0>
0?
0@
0'
0&
0%
0(
#81000000
b1010001 !
1B
0J
1?
1&
#82000000
b1010011 !
b1010010 !
0B
1D
0K
1J
0G
0F
1H
1=
1;
1<
0?
1@
1'
0&
1#
1"
1$
#83000000
b1010011 !
1B
0J
0H
0=
1?
1&
0$
#84000000
b1010111 !
b1010101 !
b1010100 !
0B
0D
1C
1K
0I
1G
1H
1=
0<
1>
0@
0'
1%
0#
1$
#85000000
b1010101 !
1B
1I
0G
1F
0;
1<
0>
0%
1#
0"
#86000000
b1010111 !
b1010110 !
0B
1D
1J
0F
1;
0?
0&
1"
#87000000
b1010111 !
1B
0K
0J
0I
1L
1A
1>
1?
1@
1'
1&
1%
1(
#88000000
b1011111 !
b1011011 !
b1011001 !
b1011000 !
0B
0D
0C
1:
1K
1J
1I
1G
1F
0L
0H
0=
0A
0;
0<
0>
0?
0@
0'
0&
0%
0#
0"
0(
0$
#89000000
b1011001 !
1B
0J
1?
1&
#90000000
b1011011 !
b1011010 !
0B
1D
0K
1J
0G
0F
1H
1=
1;
1<
0?
1@
1'
0&
1#
1"
1$
#91000000
b1011011 !
1B
0J
0H
0=
1?
1&
0$
#92000000
b1011111 !
b1011101 !
b1011100 !
0B
0D
1C
1K
0I
1G
1H
1=
0<
1>
0@
0'
1%
0#
1$
#93000000
b1011101 !
1B
1I
0G
1F
0;
1<
0>
0%
1#
0"
#94000000
b1011111 !
b1011110 !
0B
1D
1J
0F
1;
0?
0&
1"
#95000000
b1011111 !
1B
0K
0J
0I
1L
1A
1>
1?
1@
1'
1&
1%
1(
#96000000
b1111111 !
b1101111 !
b1100111 !
b1100011 !
b1100001 !
b1100000 !
0B
0D
0C
0:
0E
19
1K
1J
1I
1G
1F
0H
0=
0;
0<
0>
0?
0@
0'
0&
0%
0#
0"
0$
#97000000
b1100001 !
1B
0K
0J
0I
0F
1;
1>
1?
1@
1'
1&
1%
1"
#98000000
b1100011 !
b1100010 !
0B
1D
1J
1I
1F
0L
1H
1=
0A
0;
0>
0?
0&
0%
0"
0(
1$
#99000000
b1100011 !
1B
0J
0H
0=
1?
1&
0$
