FS_11_6/simulation/qsim/FS11_6.msim.vcd
$comment
	File created using the following command:
		vcd file FS11_6.msim.vcd -direction
$end
$date
	Wed Mar 26 18:13:33 2025
$end
$version
	ModelSim Version 10.5b
$end
$timescale
	1ps
$end

$scope module ComptageEssai_vlg_vec_tst $end
$var reg 1 ! IncTries $end
$var reg 1 " RazTries $end
$var wire 1 # NbTries [3] $end
$var wire 1 $ NbTries [2] $end
$var wire 1 % NbTries [1] $end
$var wire 1 & NbTries [0] $end

$scope module i1 $end
$var wire 1 ' gnd $end
$var wire 1 ( vcc $end
$var wire 1 ) unknown $end
$var tri1 1 * devclrn $end
$var tri1 1 + devpor $end
$var tri1 1 , devoe $end
$var wire 1 - IncTries~input_o $end
$var wire 1 . inst|LPM_COUNTER_component|auto_generated|counter_comb_bita0~combout $end
$var wire 1 / ~GND~combout $end
$var wire 1 0 RazTries~input_o $end
$var wire 1 1 inst|LPM_COUNTER_component|auto_generated|counter_comb_bita3~COUT $end
$var wire 1 2 inst|LPM_COUNTER_component|auto_generated|counter_comb_bita3~0_combout $end
$var wire 1 3 inst|LPM_COUNTER_component|auto_generated|cmpr1|aneb_result_wire[0]~0_combout $end
$var wire 1 4 inst|LPM_COUNTER_component|auto_generated|cout_actual~combout $end
$var wire 1 5 inst|LPM_COUNTER_component|auto_generated|counter_comb_bita0~COUT $end
$var wire 1 6 inst|LPM_COUNTER_component|auto_generated|counter_comb_bita1~combout $end
$var wire 1 7 inst|LPM_COUNTER_component|auto_generated|counter_comb_bita1~COUT $end
$var wire 1 8 inst|LPM_COUNTER_component|auto_generated|counter_comb_bita2~combout $end
$var wire 1 9 inst|LPM_COUNTER_component|auto_generated|counter_comb_bita2~COUT $end
$var wire 1 : inst|LPM_COUNTER_component|auto_generated|counter_comb_bita3~combout $end
$var wire 1 ; inst|LPM_COUNTER_component|auto_generated|counter_reg_bit [3] $end
$var wire 1 < inst|LPM_COUNTER_component|auto_generated|counter_reg_bit [2] $end
$var wire 1 = inst|LPM_COUNTER_component|auto_generated|counter_reg_bit [1] $end
$var wire 1 > inst|LPM_COUNTER_component|auto_generated|counter_reg_bit [0] $end
$upscope $end
$upscope $end
$enddefinitions $end
#0
$dumpvars
0!
0"
0&
0%
0$
0#
0'
1(
x)
1*
1+
1,
0-
1.
0/
00
11
02
03
04
05
06
17
08
09
0:
0>
0=
0<
0;
$end
#640000
1"
10
#1250000
1!
1-
#2500000
0!
0-
1>
1&
15
0.
16
#3750000
1!
1-
#5000000
0!
0-
0>
1=
1%
0&
05
07
1.
06
17
16
18
08
#6250000
1!
1-
#7500000
0!
0-
1>
1&
15
0.
07
06
18
#8750000
1!
1-
#10000000
0!
0-
0>
0=
1<
1$
0%
0&
05
17
19
1.
16
08
09
06
18
1:
0:
#11250000
1!
1-
#12500000
0!
0-
1>
1&
15
0.
16
#13750000
1!
1-
#15000000
0!
0-
0>
1=
1%
0&
05
07
1.
06
17
19
16
08
09
18
1:
0:
#16250000
1!
1-
#17500000
0!
0-
1>
1&
15
0.
07
06
19
08
1:
#18750000
1!
1-
#20000000
0!
0-
0>
0=
0<
1;
1#
0$
0%
0&
05
17
09
01
1.
16
18
0:
11
12
06
08
1:
02
14
04
#21250000
1!
1-
#22500000
0!
0-
1>
1&
15
0.
16
#23750000
1!
1-
#25000000
0!
0-
0>
1=
1%
0&
13
05
07
1.
06
14
17
16
18
08
#26250000
1!
1-
#27500000
0!
0-
0=
0;
0#
0%
03
06
0:
04
#28750000
1!
1-
#30000000
0!
0-
1>
1&
15
0.
16
#31250000
1!
1-
#32500000
0!
0-
0>
1=
1%
0&
05
07
1.
06
17
16
18
08
#33750000
1!
1-
#34560000
0"
00
0=
0%
06
#35000000
0!
0-
#36250000
1!
1-
#37500000
0!
0-
#38750000
1!
1-
#40000000
1"
0!
10
0-
#41250000
1!
1-
#42500000
0!
0-
1>
1&
15
0.
16
#43750000
1!
1-
#45000000
0!
0-
0>
1=
1%
0&
05
07
1.
06
17
16
18
08
#46250000
1!
1-
#47500000
0!
0-
1>
1&
15
0.
07
06
18
#48750000
1!
1-
#50000000
0!
0-
0>
0=
1<
1$
0%
0&
05
17
19
1.
16
08
09
06
18
1:
0:
#51250000
1!
1-
#52500000
0!
0-
1>
1&
15
0.
16
#53750000
1!
1-
#55000000
0!
0-
0>
1=
1%
0&
05
07
1.
06
17
19
16
08
09
18
1:
0:
#56250000
1!
1-
#57500000
0!
0-
1>
1&
15
0.
07
06
19
08
1:
#58750000
1!
1-
#60000000
0"
0!
00
0-
0>
0=
0<
0$
0%
0&
05
17
09
1.
16
18
06
08
0:
#61250000
1!
1-
#62500000
0!
0-
#63750000
1!
1-
#65000000
0!
0-
#66250000
1!
1-
#67500000
0!
0-
#68480000
1"
10
#68750000
1!
1-
#70000000
0!
0-
1>
1&
15
0.
16
#71250000
1!
1-
#72500000
0!
0-
0>
1=
1%
0&
05
07
1.
06
17
16
18
08
#73750000
1!
1-
#75000000
0!
0-
1>
1&
15
0.
07
06
18
#76250000
1!
1-
#77500000
0!
0-
0>
0=
1<
1$
0%
0&
05
17
19
1.
16
08
09
06
18
1:
0:
#78750000
1!
1-
#80000000
0!
0-
1>
1&
15
0.
16
#81250000
1!
1-
#82500000
0!
0-
0>
1=
1%
0&
05
07
1.
06
17
19
16
08
09
18
1:
0:
#83750000
1!
1-
#85000000
0!
0-
1>
1&
15
0.
07
06
19
08
1:
#86250000
1!
1-
#87500000
0!
0-
0>
0=
0<
1;
1#
0$
0%
0&
05
17
09
01
1.
16
18
0:
11
12
06
08
1:
02
14
04
#88750000
1!
1-
#90000000
0!
0-
1>
1&
15
0.
16
#91250000
1!
1-
#92500000
0!
0-
0>
1=
1%
0&
13
05
07
1.
06
14
17
16
18
08
#93750000
1!
1-
#95000000
0!
0-
0=
0;
0#
0%
03
06
0:
04
#96250000
1!
1-
#97500000
0!
0-
1>
1&
15
0.
16
#98750000
1!
1-
