HDL_TP2_EX2/simulation/qsim/HDL_TP2_EX2_diviseur_freq.msim.vcd
$comment
	File created using the following command:
		vcd file HDL_TP2_EX2_diviseur_freq.msim.vcd -direction
$end
$date
	Mon Sep 22 14:46:36 2025
$end
$version
	ModelSim Version 10.5b
$end
$timescale
	1ps
$end

$scope module diviseur_freq_vlg_vec_tst $end
$var reg 1 ! clkIn $end
$var wire 1 " clkOut $end

$scope module i1 $end
$var wire 1 # gnd $end
$var wire 1 $ vcc $end
$var wire 1 % unknown $end
$var tri1 1 & devclrn $end
$var tri1 1 ' devpor $end
$var tri1 1 ( devoe $end
$var wire 1 ) clkOut~output_o $end
$var wire 1 * clkIn~input_o $end
$var wire 1 + clkIn~inputclkctrl_outclk $end
$var wire 1 , Nb[0]~32_combout $end
$var wire 1 - LessThan0~0_combout $end
$var wire 1 . Nb[3]~39 $end
$var wire 1 / Nb[4]~40_combout $end
$var wire 1 0 Nb[4]~41 $end
$var wire 1 1 Nb[5]~42_combout $end
$var wire 1 2 Nb[5]~43 $end
$var wire 1 3 Nb[6]~44_combout $end
$var wire 1 4 Nb[6]~45 $end
$var wire 1 5 Nb[7]~46_combout $end
$var wire 1 6 Nb[7]~47 $end
$var wire 1 7 Nb[8]~48_combout $end
$var wire 1 8 Nb[8]~49 $end
$var wire 1 9 Nb[9]~50_combout $end
$var wire 1 : Nb[9]~51 $end
$var wire 1 ; Nb[10]~52_combout $end
$var wire 1 < Nb[10]~53 $end
$var wire 1 = Nb[11]~54_combout $end
$var wire 1 > Nb[11]~55 $end
$var wire 1 ? Nb[12]~56_combout $end
$var wire 1 @ Nb[12]~57 $end
$var wire 1 A Nb[13]~58_combout $end
$var wire 1 B Nb[13]~59 $end
$var wire 1 C Nb[14]~60_combout $end
$var wire 1 D Nb[14]~61 $end
$var wire 1 E Nb[15]~62_combout $end
$var wire 1 F Nb[15]~63 $end
$var wire 1 G Nb[16]~64_combout $end
$var wire 1 H Nb[16]~65 $end
$var wire 1 I Nb[17]~66_combout $end
$var wire 1 J Nb[17]~67 $end
$var wire 1 K Nb[18]~68_combout $end
$var wire 1 L Nb[18]~69 $end
$var wire 1 M Nb[19]~70_combout $end
$var wire 1 N Nb[19]~71 $end
$var wire 1 O Nb[20]~72_combout $end
$var wire 1 P Nb[20]~73 $end
$var wire 1 Q Nb[21]~74_combout $end
$var wire 1 R Nb[21]~75 $end
$var wire 1 S Nb[22]~76_combout $end
$var wire 1 T Nb[22]~77 $end
$var wire 1 U Nb[23]~78_combout $end
$var wire 1 V Nb[23]~79 $end
$var wire 1 W Nb[24]~80_combout $end
$var wire 1 X Nb[24]~81 $end
$var wire 1 Y Nb[25]~82_combout $end
$var wire 1 Z Nb[25]~83 $end
$var wire 1 [ Nb[26]~84_combout $end
$var wire 1 \ Nb[26]~85 $end
$var wire 1 ] Nb[27]~86_combout $end
$var wire 1 ^ Nb[27]~87 $end
$var wire 1 _ Nb[28]~88_combout $end
$var wire 1 ` Nb[28]~89 $end
$var wire 1 a Nb[29]~90_combout $end
$var wire 1 b Nb[29]~91 $end
$var wire 1 c Nb[30]~92_combout $end
$var wire 1 d Nb[30]~93 $end
$var wire 1 e Nb[31]~94_combout $end
$var wire 1 f LessThan1~5_combout $end
$var wire 1 g LessThan1~6_combout $end
$var wire 1 h LessThan1~7_combout $end
$var wire 1 i LessThan1~2_combout $end
$var wire 1 j LessThan1~1_combout $end
$var wire 1 k LessThan1~0_combout $end
$var wire 1 l LessThan1~3_combout $end
$var wire 1 m LessThan1~4_combout $end
$var wire 1 n LessThan1~8_combout $end
$var wire 1 o LessThan0~1_combout $end
$var wire 1 p Nb[0]~33 $end
$var wire 1 q Nb[1]~34_combout $end
$var wire 1 r Nb[1]~35 $end
$var wire 1 s Nb[2]~36_combout $end
$var wire 1 t Nb[2]~37 $end
$var wire 1 u Nb[3]~38_combout $end
$var wire 1 v LessThan1~9_combout $end
$var wire 1 w LessThan1~10_combout $end
$var wire 1 x clkOut~reg0_q $end
$var wire 1 y Nb [31] $end
$var wire 1 z Nb [30] $end
$var wire 1 { Nb [29] $end
$var wire 1 | Nb [28] $end
$var wire 1 } Nb [27] $end
$var wire 1 ~ Nb [26] $end
$var wire 1 !! Nb [25] $end
$var wire 1 "! Nb [24] $end
$var wire 1 #! Nb [23] $end
$var wire 1 $! Nb [22] $end
$var wire 1 %! Nb [21] $end
$var wire 1 &! Nb [20] $end
$var wire 1 '! Nb [19] $end
$var wire 1 (! Nb [18] $end
$var wire 1 )! Nb [17] $end
$var wire 1 *! Nb [16] $end
$var wire 1 +! Nb [15] $end
$var wire 1 ,! Nb [14] $end
$var wire 1 -! Nb [13] $end
$var wire 1 .! Nb [12] $end
$var wire 1 /! Nb [11] $end
$var wire 1 0! Nb [10] $end
$var wire 1 1! Nb [9] $end
$var wire 1 2! Nb [8] $end
$var wire 1 3! Nb [7] $end
$var wire 1 4! Nb [6] $end
$var wire 1 5! Nb [5] $end
$var wire 1 6! Nb [4] $end
$var wire 1 7! Nb [3] $end
$var wire 1 8! Nb [2] $end
$var wire 1 9! Nb [1] $end
$var wire 1 :! Nb [0] $end
$upscope $end
$upscope $end
$enddefinitions $end
#0
$dumpvars
0!
0"
0#
1$
x%
1&
1'
1(
0)
0*
0+
1,
1-
1.
0/
00
01
12
03
04
05
16
07
08
09
1:
0;
0<
0=
1>
0?
0@
0A
1B
0C
0D
0E
1F
0G
0H
0I
1J
0K
0L
0M
1N
0O
0P
0Q
1R
0S
0T
0U
1V
0W
0X
0Y
1Z
0[
0\
0]
1^
0_
0`
0a
1b
0c
0d
0e
1f
1g
1h
1i
1j
1k
1l
1m
1n
0o
0p
0q
1r
0s
0t
0u
1v
1w
0x
0:!
09!
08!
07!
06!
05!
04!
03!
02!
01!
00!
0/!
0.!
0-!
0,!
0+!
0*!
0)!
0(!
0'!
0&!
0%!
0$!
0#!
0"!
0!!
0~
0}
0|
0{
0z
0y
$end
#20000
1!
1*
1+
#40000
0!
0*
0+
1:!
1x
1)
1p
1"
0,
1q
#60000
1!
1*
1+
#80000
0!
0*
0+
0:!
19!
0p
0r
1,
0q
1r
1q
1s
0s
#100000
1!
1*
1+
#120000
0!
0*
0+
1:!
1p
0,
0r
0q
1s
#140000
1!
1*
1+
#160000
0!
0*
0+
0:!
09!
18!
0p
1r
1t
1,
1q
0s
0t
0q
1s
1u
0u
#180000
1!
1*
1+
#200000
0!
0*
0+
1:!
0v
1p
0,
0w
1q
#220000
1!
1*
1+
#240000
0!
0*
0+
0:!
19!
0x
0)
0p
0r
0"
1,
0q
1r
1t
1q
0s
0t
1s
1u
0u
#260000
1!
1*
1+
#280000
0!
0*
0+
1:!
1p
0,
0r
0q
1t
0s
1u
#300000
1!
1*
1+
#320000
0!
0*
0+
0:!
09!
08!
17!
0p
1r
0t
0.
1,
1q
1s
0u
1.
0q
0s
1u
1/
0/
#340000
1!
1*
1+
#360000
0!
0*
0+
1:!
0-
1p
0,
1o
1q
#380000
1!
1*
1+
#400000
0!
0*
0+
0:!
07!
1v
1-
0p
1,
0u
0o
1w
0q
#420000
1!
1*
1+
#440000
0!
0*
0+
1:!
1x
1)
1p
1"
0,
1q
#460000
1!
1*
1+
#480000
0!
0*
0+
0:!
19!
0p
0r
1,
0q
1r
1q
1s
0s
#500000
1!
1*
1+
#520000
0!
0*
0+
1:!
1p
0,
0r
0q
1s
#540000
1!
1*
1+
#560000
0!
0*
0+
0:!
09!
18!
0p
1r
1t
1,
1q
0s
0t
0q
1s
1u
0u
#580000
1!
1*
1+
#600000
0!
0*
0+
1:!
0v
1p
0,
0w
1q
#620000
1!
1*
1+
#640000
0!
0*
0+
0:!
19!
0x
0)
0p
0r
0"
1,
0q
1r
1t
1q
0s
0t
1s
1u
0u
#660000
1!
1*
1+
#680000
0!
0*
0+
1:!
1p
0,
0r
0q
1t
0s
1u
#700000
1!
1*
1+
#720000
0!
0*
0+
0:!
09!
08!
17!
0p
1r
0t
0.
1,
1q
1s
0u
1.
0q
0s
1u
1/
0/
#740000
1!
1*
1+
#760000
0!
0*
0+
1:!
0-
1p
0,
1o
1q
#780000
1!
1*
1+
#800000
0!
0*
0+
0:!
07!
1v
1-
0p
1,
0u
0o
1w
0q
#820000
1!
1*
1+
#840000
0!
0*
0+
1:!
1x
1)
1p
1"
0,
1q
#860000
1!
1*
1+
#880000
0!
0*
0+
0:!
19!
0p
0r
1,
0q
1r
1q
1s
0s
#900000
1!
1*
1+
#920000
0!
0*
0+
1:!
1p
0,
0r
0q
1s
#940000
1!
1*
1+
#960000
0!
0*
0+
0:!
09!
18!
0p
1r
1t
1,
1q
0s
0t
0q
1s
1u
0u
#980000
1!
1*
1+
